[gd_scene load_steps=3 format=1]

[ext_resource path="res://ControllerMapperOption.gd" type="Script" id=1]
[ext_resource path="res://fonts/OpenSans16.fnt" type="BitmapFont" id=2]

[node name="ControllerMapperOption" type="HBoxContainer"]

focus/ignore_mouse = false
focus/stop_mouse = false
size_flags/horizontal = 2
size_flags/vertical = 2
margin/left = 0.0
margin/top = 0.0
margin/right = 420.0
margin/bottom = 40.0
custom_constants/separation = 20
alignment = 0
script/script = ExtResource( 1 )
input_name = "ui_up"

[node name="Label" type="Label" parent="."]

rect/min_size = Vector2( 150, 0 )
focus/ignore_mouse = true
focus/stop_mouse = true
size_flags/horizontal = 2
size_flags/vertical = 0
margin/left = 0.0
margin/top = 11.0
margin/right = 150.0
margin/bottom = 28.0
custom_fonts/font = ExtResource( 2 )
text = "Text Label"
percent_visible = 1.0
lines_skipped = 0
max_lines_visible = -1

[node name="AssignmentsContainer" type="VBoxContainer" parent="."]

focus/ignore_mouse = false
focus/stop_mouse = false
size_flags/horizontal = 2
size_flags/vertical = 2
margin/left = 170.0
margin/top = 0.0
margin/right = 320.0
margin/bottom = 40.0
alignment = 0

[node name="NewAssignment" type="Button" parent="AssignmentsContainer"]

rect/min_size = Vector2( 150, 0 )
focus/ignore_mouse = false
focus/stop_mouse = true
size_flags/horizontal = 2
size_flags/vertical = 2
margin/left = 0.0
margin/top = 0.0
margin/right = 150.0
margin/bottom = 23.0
custom_fonts/font = ExtResource( 2 )
toggle_mode = false
enabled_focus_mode = 2
shortcut = null
text = "+ Assign"
flat = false
align = 0

[connection signal="pressed" from="AssignmentsContainer/NewAssignment" to="." method="_on_NewAssignment_pressed"]


