[gd_scene load_steps=3 format=1]

[ext_resource path="res://fonts/OpenSans16.fnt" type="BitmapFont" id=1]
[ext_resource path="res://SettingsControl.gd" type="Script" id=2]

[node name="SoundOptionsMenu" type="VBoxContainer"]

focus/ignore_mouse = false
focus/stop_mouse = false
size_flags/horizontal = 2
size_flags/vertical = 2
margin/left = 0.0
margin/top = 0.0
margin/right = 40.0
margin/bottom = 40.0
alignment = 0

[node name="SoundFXLabel" type="Label" parent="."]

focus/ignore_mouse = true
focus/stop_mouse = true
size_flags/horizontal = 2
size_flags/vertical = 0
margin/left = 0.0
margin/top = 0.0
margin/right = 70.0
margin/bottom = 17.0
custom_fonts/font = ExtResource( 1 )
text = "Sound FX"
percent_visible = 1.0
lines_skipped = 0
max_lines_visible = -1

[node name="SoundFXSlider" type="HSlider" parent="."]

focus/ignore_mouse = false
focus/stop_mouse = true
size_flags/horizontal = 2
size_flags/vertical = 0
margin/left = 0.0
margin/top = 21.0
margin/right = 70.0
margin/bottom = 37.0
range/min = 0.0
range/max = 1.0
range/step = 0.1
range/page = 0.0
range/value = 1.0
range/exp_edit = false
range/rounded = false
tick_count = 10
ticks_on_borders = false
focus_mode = 2
script/script = ExtResource( 2 )
key = "audio/fx_volume_scale"

[node name="HSeparator" type="HSeparator" parent="."]

focus/ignore_mouse = false
focus/stop_mouse = true
size_flags/horizontal = 2
size_flags/vertical = 2
margin/left = 0.0
margin/top = 41.0
margin/right = 70.0
margin/bottom = 44.0

[node name="MusicLabel" type="Label" parent="."]

focus/ignore_mouse = true
focus/stop_mouse = true
size_flags/horizontal = 2
size_flags/vertical = 0
margin/left = 0.0
margin/top = 48.0
margin/right = 70.0
margin/bottom = 65.0
custom_fonts/font = ExtResource( 1 )
text = "Music"
percent_visible = 1.0
lines_skipped = 0
max_lines_visible = -1

[node name="MusicSlider" type="HSlider" parent="."]

focus/ignore_mouse = false
focus/stop_mouse = true
size_flags/horizontal = 2
size_flags/vertical = 0
margin/left = 0.0
margin/top = 69.0
margin/right = 70.0
margin/bottom = 85.0
range/min = 0.0
range/max = 1.0
range/step = 0.1
range/page = 0.0
range/value = 1.0
range/exp_edit = false
range/rounded = false
tick_count = 10
ticks_on_borders = false
focus_mode = 2
script/script = ExtResource( 2 )
key = "audio/stream_volume_scale"


